MatLab/1_36_Gain_Comp.csv

#Digilent WaveForms Oscilloscope Acquisition
#Device Name: Discovery2
#Serial Number: SN:210321A68916
#Date Time: 2018-04-29 13:56:21.816
#Sample rate: 4e+06Hz
#Samples: 20000
#Trigger: Source: Channel 1 Type: Edge Condition: Rising Level: 0 V Hyst.: Auto HoldOff: 0 s
#Channel 1: Range: 10 mV/div Offset: -2.11 V
#Channel 2: Range: 50 mV/div Offset: -2.15 V

Time (s),Channel 1 (V),Channel 2 (V)
-0.0025000000000000001,2.0513576601682728,4.2824451913245714
-0.0024997499999999998,2.0589545773413196,4.2827759153223939
-0.0024995,2.0662211937677117,4.2827759153223939
-0.0024992500000000002,2.0741484116874123,4.2824451913245714
-0.0024989999999999999,2.0827362311004212,4.2824451913245714
-0.0024987500000000001,2.0909937497667763,4.2824451913245714
-0.0024984999999999999,2.099251268433131,4.2827759153223939
-0.00249825,2.1081693885927941,4.2827759153223939
-0.0024979999999999998,2.1170875087524572,4.2827759153223939
-0.00249775,2.1256753281654661,4.2824451913245714
-0.0024975000000000002,2.1345934483251296,4.2824451913245714
-0.0024972499999999999,2.1438418692314469,4.2817837433289245
-0.0024970000000000001,2.1530902901377642,4.2824451913245714
-0.0024967499999999998,2.1620084102974273,4.2824451913245714
-0.0024965,2.1699356282171283,4.2827759153223939
-0.0024962500000000002,2.1811658536033707,4.2827759153223939
-0.002496,2.1897536730163796,4.2834373633180398
-0.0024957500000000001,2.1976808909360801,4.2824451913245714
-0.0024954999999999999,2.2056081088557806,4.2831066393202164
-0.0024952500000000001,2.2145262290154442,4.2827759153223939
-0.0024949999999999998,2.2224534469351447,4.2831066393202164
-0.00249475,2.2297200633615368,4.2824451913245714
-0.0024945000000000002,2.2376472812812374,4.2827759153223939
-0.0024942499999999999,2.2455744992009379,4.2827759153223939
-0.0024940000000000001,2.2525108148806763,4.2824451913245714
-0.0024937499999999999,2.2587865290671059,4.2824451913245714
-0.0024935000000000001,2.2653925440001896,4.2824451913245714
-0.0024932499999999998,2.2716682581866192,4.2824451913245714
-0.002493,2.278274273119703,4.2824451913245714
-0.0024927500000000002,2.2838893858128246,4.2827759153223939
-0.0024924999999999999,2.2895044985059458,4.2827759153223939
-0.0024922500000000001,2.2947893104524129,4.2827759153223939
-0.0024919999999999999,2.2997438216522257,4.2834373633180398
-0.00249175,2.3043680321053843,4.2824451913245714
-0.0024914999999999998,2.3083316410652346,4.2834373633180398
-0.00249125,2.312625550771739,4.2831066393202164
-0.0024910000000000002,2.3152679567449725,4.2824451913245714
-0.0024907499999999999,2.3182406634648602,4.2827759153223939
-0.0024905000000000001,2.3205527686914396,4.2824451913245714
-0.0024902499999999998,2.3222042724247105,4.2831066393202164
-0.00249,2.3231951746646731,4.2827759153223939
-0.0024897500000000002,2.3238557761579814,4.2827759153223939
-0.0024895,2.3241860769046361,4.2827759153223939
-0.0024892500000000001,2.3238557761579814,4.2827759153223939
-0.0024889999999999999,2.3231951746646731,4.2831066393202164
-0.0024887500000000001,2.3228648739180189,4.2831066393202164
-0.0024884999999999998,2.3218739716780563,4.2827759153223939
-0.00248825,2.3198921671981312,4.2831066393202164
-0.0024880000000000002,2.3179103627182061,4.2827759153223939
-0.0024877499999999999,2.3159285582382809,4.2827759153223939
-0.0024875000000000001,2.3129558515183932,4.2827759153223939
-0.0024872499999999999,2.3093225433051972,4.2831066393202164
-0.0024870000000000001,2.3066801373319636,4.2824451913245714
-0.0024867499999999998,2.3013953253854966,4.2821144673267479
-0.0024865,2.2980923179189547,4.2821144673267479
-0.0024862500000000002,2.2921469044791793,4.2824451913245714
-0.0024859999999999999,2.2865317917860581,4.2824451913245714
-0.0024857500000000001,2.2799257768529739,4.2824451913245714
-0.0024854999999999999,2.2723288596799276,4.2821144673267479
-0.00248525,2.266053145493498,4.2821144673267479
-0.0024849999999999998,2.2587865290671059,4.2824451913245714
-0.00248475,2.2508593111474053,4.2827759153223939
-0.0024845000000000002,2.2419411909877418,4.2824451913245714
-0.0024842499999999999,2.2340139730680413,4.2831066393202164
-0.0024840000000000001,2.2254261536550324,4.2831066393202164
-0.0024837499999999998,2.2145262290154442,4.2824451913245714
-0.0024835,2.2056081088557806,4.2837680873158632
-0.0024832500000000002,2.1963596879494633,4.2834373633180398
-0.002483,2.1867809662964919,4.2837680873158632
-0.0024827500000000001,2.1758810416569037,4.2834373633180398
-0.0024824999999999999,2.1653114177639692,4.2837680873158632
-0.0024822500000000001,2.1550720946176893,4.2831066393202164
-0.0024819999999999998,2.1438418692314469,4.2827759153223939
-0.00248175,2.1329419445918587,4.2827759153223939
-0.0024815000000000002,2.1217117192056159,4.2824451913245714
-0.0024812499999999999,2.1111420953126818,4.2824451913245714
-0.0024810000000000001,2.0999118699264394,4.2824451913245714
-0.0024807499999999999,2.0886816445401966,4.2824451913245714
-0.0024805000000000001,2.0784423213939167,4.2827759153223939
-0.0024802499999999998,2.0678726975009827,4.2824451913245714
-0.00248,2.0569727728613945,4.2824451913245714
-0.0024797500000000002,2.0460728482218058,4.2824451913245714
-0.0024794999999999999,2.035833525075526,4.2824451913245714
-0.0024792500000000001,2.0255942019292461,4.2827759153223939
-0.0024789999999999999,2.0160154802762746,4.2824451913245714
-0.0024787500000000001,2.0067670593699569,4.2824451913245714
-0.0024784999999999998,1.9978489392102938,4.2824451913245714
-0.00247825,1.9892611197972849,4.2824451913245714
-0.0024780000000000002,1.9806733003842758,4.2817837433289245
-0.0024777499999999999,1.9727460824645753,4.2821144673267479
-0.0024775000000000001,1.9654794660381829,4.2821144673267479
-0.0024772499999999999,1.9582128496117908,4.2821144673267479
-0.002477,1.9506159324387444,4.2824451913245714
-0.0024767499999999998,1.9469826242255484,4.2824451913245714
-0.0024765,1.9416978122790811,4.2831066393202164
-0.0024762500000000002,1.9370736018259225,4.2831066393202164
-0.0024759999999999999,1.9334402936127264,4.2831066393202164
-0.0024757500000000001,1.9307978876394929,4.2834373633180398
-0.0024754999999999998,1.9294766846528761,4.2831066393202164
-0.00247525,1.9274948801729508,4.2831066393202164
-0.0024750000000000002,1.9271645794262966,4.2827759153223939
-0.00247475,1.9274948801729508,4.2831066393202164
-0.0024745000000000001,1.9284857824129136,4.2831066393202164
-0.0024742499999999999,1.9298069853995303,4.2834373633180398
-0.0024740000000000001,1.9324493913727638,4.2834373633180398
-0.0024737499999999998,1.9360826995859599,4.2834373633180398
-0.0024735,1.939716007799156,4.2831066393202164
-0.0024732500000000002,1.9443402182523146,4.2831066393202164
-0.0024729999999999999,1.9496250301987819,4.2827759153223939
-0.0024727500000000001,1.9555704436385573,4.2824451913245714
-0.0024724999999999999,1.9618461578249868,4.2827759153223939
-0.0024722500000000001,1.9694430749980334,4.2827759153223939
-0.0024719999999999998,1.9770399921710797,4.2834373633180398
-0.00247175,1.9849672100907805,4.2827759153223939
-0.0024715000000000002,1.9938853302504436,4.2827759153223939
-0.0024712499999999999,2.0031337511567608,4.2827759153223939
-0.0024710000000000001,2.0127124728097323,4.2824451913245714
-0.0024707499999999999,2.0226214952093584,4.2824451913245714
-0.0024705,2.0335214198489466,4.2821144673267479
-0.0024702499999999998,2.0450819459818432,4.2824451913245714
-0.00247,2.0563121713680861,4.2827759153223939
-0.0024697500000000002,2.0675423967543285,4.2831066393202164
-0.0024694999999999999,2.0794332236338793,4.2831066393202164
-0.0024692500000000001,2.0923149527533931,4.2831066393202164
-0.0024689999999999998,2.1042057796329439,4.2831066393202164
-0.00246875,2.1160966065124946,4.2831066393202164
-0.0024685000000000002,2.1293086363786622,4.2831066393202164
-0.00246825,2.1425206662448302,4.2831066393202164
-0.0024680000000000001,2.1540811923777268,4.2834373633180398
-0.0024677499999999999,2.1676235229905485,4.2834373633180398
-0.0024675000000000001,2.178193146883483,4.2834373633180398
-0.0024672499999999998,2.1910748760029963,4.2831066393202164
-0.002467,2.2029657028825471,4.2831066393202164
-0.0024667500000000002,2.2151868305087525,4.2831066393202164
-0.0024664999999999999,2.2274079581349575,4.2834373633180398
-0.0024662500000000001,2.2379775820278915,4.2831066393202164
-0.0024659999999999999,2.2482169051741718,4.2831066393202164
-0.0024657500000000001,2.2591168298137601,4.2827759153223939
-0.0024654999999999998,2.2680349499734231,4.2827759153223939
-0.00246525,2.2769530701330862,4.2827759153223939
-0.0024650000000000002,2.2858711902927498,4.2824451913245714
-0.0024647499999999999,2.2944590097057587,4.2824451913245714
-0.0024645000000000001,2.3033771298654218,4.2824451913245714
-0.0024642499999999999,2.3106437462918139,4.2827759153223939
-0.002464,2.3172497612248977,4.2831066393202164
-0.0024637499999999998,2.3245163776512903,4.2827759153223939
-0.0024635,2.3307920918377198,4.2831066393202164
-0.0024632500000000002,2.3357466030375327,4.2834373633180398
-0.0024629999999999999,2.3410314149839997,4.2834373633180398
-0.0024627500000000001,2.3463162269304667,4.2834373633180398
-0.0024624999999999998,2.350279835890317,4.2831066393202164
-0.00246225,2.3529222418635505,4.2827759153223939
-0.0024620000000000002,2.355564647836784,4.2834373633180398
-0.00246175,2.3578767530633633,4.2831066393202164
-0.0024615000000000001,2.3585373545566717,4.2831066393202164
-0.0024612499999999999,2.3585373545566717,4.2834373633180398
-0.0024610000000000001,2.3585373545566717,4.2831066393202164
-0.0024607499999999998,2.3572161515700549,4.2824451913245714
-0.0024605,2.3558949485834382,4.2827759153223939
-0.0024602500000000002,2.353913144103513,4.2831066393202164
-0.0024599999999999999,2.3512707381302795,4.2827759153223939
-0.0024597500000000001,2.3473071291704293,4.2831066393202164
-0.0024594999999999999,2.3436738209572332,4.2837680873158632
-0.0024592500000000001,2.3383890090107662,4.2831066393202164
-0.0024589999999999998,2.3324435955709908,4.2834373633180398
-0.00245875,2.3261678813845612,4.2831066393202164
-0.0024585000000000002,2.3189012649581686,4.2827759153223939
-0.0024582499999999999,2.3116346485317765,4.2831066393202164
-0.0024580000000000001,2.3037074306120759,4.2831066393202164
-0.0024577499999999999,2.2941287089591045,4.2834373633180398
-0.0024575,2.2855408895460956,4.2831066393202164
-0.0024572499999999998,2.2756318671464695,4.2831066393202164
-0.002457,2.2663834462401522,4.2831066393202164
-0.0024567500000000002,2.2564744238405265,4.2834373633180398
-0.0024564999999999999,2.2449138977076295,4.2831066393202164
-0.0024562500000000001,2.2330230708280787,4.2827759153223939
-0.0024559999999999998,2.2214625446951821,4.2827759153223939
-0.00245575,2.2099020185622855,4.2821144673267479
-0.0024554999999999998,2.1976808909360801,4.2824451913245714
-0.00245525,2.1851294625632209,4.2831066393202164
-0.0024550000000000002,2.1722477334437076,4.2827759153223939
-0.0024547499999999999,2.1593660043241938,4.2831066393202164
-0.0024545000000000001,2.1471448766979888,4.2827759153223939
-0.0024542499999999998,2.1336025460851671,4.2831066393202164
-0.002454,2.1200602154723449,4.2824451913245714
-0.0024537500000000002,2.1078390878461399,4.2827759153223939
-0.0024535,2.0959482609665891,4.2821144673267479
-0.0024532500000000001,2.0837271333403837,4.2827759153223939
-0.0024529999999999999,2.0718363064608329,4.2831066393202164
-0.0024527500000000001,2.0612666825678989,4.2837680873158632
-0.0024524999999999998,2.0503667579283102,4.2837680873158632
-0.00245225,2.0391365325420678,4.2827759153223939
-0.0024520000000000002,2.0285669086491338,4.2834373633180398
-0.0024517499999999999,2.0189881869961623,4.2831066393202164
-0.0024515000000000001,2.0090791645965362,4.2827759153223939
-0.0024512499999999999,1.999830743690219,4.2831066393202164
-0.0024510000000000001,1.9912429242772101,4.2834373633180398
-0.0024507499999999998,1.9836460071041637,4.2831066393202164
-0.0024505,1.9760490899311172,4.2831066393202164
-0.0024502500000000002,1.9694430749980334,4.2831066393202164
-0.0024499999999999999,1.9628370600649494,4.2824451913245714
-0.0024497500000000001,1.9582128496117908,4.2821144673267479
-0.0024494999999999999,1.9532583384119779,4.2821144673267479
-0.00244925,1.9492947294521277,4.2827759153223939
-0.0024489999999999998,1.9466523234788942,4.2827759153223939
-0.00244875,1.944670518998969,4.2834373633180398
-0.0024485000000000002,1.9433493160123521,4.2834373633180398
-0.0024482499999999999,1.9426887145190437,4.2834373633180398
-0.0024480000000000001,1.9440099175056604,4.2831066393202164
-0.0024477499999999998,1.9443402182523146,4.2827759153223939
-0.0024475,1.9453311204922774,4.2821144673267479
-0.0024472500000000002,1.949955330945436,4.2821144673267479
-0.002447,1.9525977369186696,4.2821144673267479
-0.0024467500000000001,1.9565613458785198,4.2824451913245714
-0.0024464999999999999,1.9615158570783326,4.2827759153223939
-0.0024462500000000001,1.9677915712647625,4.2827759153223939
-0.0024459999999999998,1.9747278869445004,4.2831066393202164
-0.00244575,1.9813339018775842,4.2831066393202164
-0.0024455000000000002,1.9889308190506307,4.2827759153223939
-0.0024452499999999999,1.9975186384636396,4.2827759153223939
-0.0024450000000000001,2.0067670593699569,4.2824451913245714
-0.0024447499999999999,2.0150245780363121,4.2824451913245714
-0.0024445000000000001,2.0249336004359377,4.2824451913245714
-0.0024442499999999998,2.0348426228355634,4.2831066393202164
-0.002444,2.044751645235189,4.2827759153223939
-0.0024437500000000002,2.0549909683814693,4.2821144673267479
-0.0024434999999999999,2.0662211937677117,4.2827759153223939
-0.0024432500000000001,2.0774514191539541,4.2827759153223939
-0.0024429999999999999,2.0890119452868507,4.2827759153223939
-0.00244275,2.1012330729130562,4.2831066393202164
-0.0024424999999999998,2.1134542005392611,4.2834373633180398
-0.00244225,2.1260056289121203,4.2834373633180398
-0.0024420000000000002,2.1382267565383257,4.2827759153223939
-0.0024417499999999999,2.1511084856578391,4.2834373633180398
-0.0024415000000000001,2.1646508162706608,4.2834373633180398
-0.0024412499999999998,2.1768719438968662,4.2831066393202164
-0.002441,2.188762770776417,4.2831066393202164
-0.0024407500000000002,2.2003232969093136,4.2831066393202164
-0.0024405,2.2132050260288274,4.2831066393202164
-0.0024402500000000001,2.2257564544016866,4.2827759153223939
-0.0024399999999999999,2.2366563790412748,4.2834373633180398
-0.0024397500000000001,2.2482169051741718,4.2834373633180398
-0.0024394999999999998,2.2597774313070684,4.2831066393202164
-0.00243925,2.2706773559466567,4.2831066393202164
-0.0024390000000000002,2.2812469798395907,4.2831066393202164
-0.0024387499999999999,2.2908257014925626,4.2827759153223939
-0.0024385000000000001,2.3004044231455341,4.2831066393202164
-0.0024382499999999999,2.3093225433051972,4.2831066393202164
-0.0024380000000000001,2.3152679567449725,4.2821144673267479
-0.0024377499999999998,2.3238557761579814,4.2824451913245714
-0.0024375,2.3314526933310282,4.2824451913245714
-0.0024372500000000002,2.3367375052774952,4.2831066393202164
-0.0024369999999999999,2.3430132194639248,4.2831066393202164
-0.0024367500000000001,2.3479677306637377,4.2831066393202164
-0.0024364999999999999,2.3522616403702421,4.2827759153223939
-0.00243625,2.3558949485834382,4.2831066393202164
-0.0024359999999999998,2.3588676553033259,4.2827759153223939
-0.00243575,2.3601888582899431,4.2827759153223939
-0.0024355000000000002,2.3611797605299056,4.2831066393202164
-0.0024352499999999999,2.3621706627698682,4.2834373633180398
-0.0024350000000000001,2.3631615650098308,4.2831066393202164
-0.0024347499999999998,2.3625009635165224,4.2831066393202164
-0.0024345,2.3615100612765598,4.2831066393202164
-0.0024342500000000002,2.3598585575432884,4.2831066393202164
-0.002434,2.3578767530633633,4.2824451913245714
-0.0024337500000000001,2.3545737455968214,4.2827759153223939
-0.0024334999999999999,2.3509404373836253,4.2824451913245714
-0.0024332500000000001,2.3473071291704293,4.2827759153223939
-0.0024329999999999998,2.3426829187172706,4.2824451913245714
-0.00243275,2.3373981067708036,4.2827759153223939
-0.0024325000000000002,2.331122392584374,4.2831066393202164
-0.00243225,2.3255072798912528,4.2827759153223939
-0.0024320000000000001,2.3182406634648602,4.2827759153223939
-0.0024317499999999999,2.3106437462918139,4.2831066393202164
-0.0024315000000000001,2.3033771298654218,4.2827759153223939
-0.0024312499999999998,2.2961105134390296,4.2827759153223939
-0.002431,2.2871923932793665,4.2827759153223939
-0.0024307500000000002,2.278274273119703,4.2827759153223939
-0.0024304999999999999,2.2696864537066941,4.2827759153223939
-0.0024302500000000001,2.260768333547031,4.2831066393202164
-0.0024299999999999999,2.2505290104007512,4.2821144673267479
-0.0024297500000000001,2.2406199880011251,4.2827759153223939
-0.0024294999999999998,2.2313715670948078,4.2831066393202164
-0.00242925,2.2208019432018737,4.2827759153223939
-0.0024290000000000002,2.2099020185622855,4.2831066393202164
-0.0024287499999999999,2.1999929961626594,4.2827759153223939
-0.0024285000000000001,2.1907445752563421,4.2827759153223939
-0.0024282499999999999,2.1768719438968662,4.2821144673267479
-0.002428,2.1666326207505859,4.2827759153223939
-0.0024277499999999998,2.1557326961109977,4.2831066393202164
-0.0024275,2.1445024707247553,4.2827759153223939
-0.0024272500000000002,2.1336025460851671,4.2831066393202164
-0.0024269999999999999,2.1227026214455784,4.2827759153223939
-0.0024267500000000001,2.1118026968059902,4.2827759153223939
-0.0024264999999999998,2.1012330729130562,4.2824451913245714
-0.00242625,2.0903331482734675,4.2834373633180398
-0.0024260000000000002,2.0800938251271877,4.2821144673267479
-0.00242575,2.0698545019809078,4.2827759153223939
-0.0024255000000000001,2.0599454795812822,4.2831066393202164
-0.0024252499999999999,2.0500364571816561,4.2824451913245714
-0.0024250000000000001,2.0414486377686472,4.2831066393202164
-0.0024247499999999998,2.0325305176089841,4.2834373633180398
-0.0024245,2.0239426981959752,4.2827759153223939
-0.0024242500000000002,2.0163457810229288,4.2824451913245714
-0.0024239999999999999,2.0084185631032279,4.2817837433289245
-0.0024237500000000001,2.0011519466768357,4.2821144673267479
-0.0024234999999999999,1.9942156309970978,4.2817837433289245
-0.0024232500000000001,1.9879399168106682,4.2824451913245714
-0.0024229999999999998,1.9829854056108551,4.2824451913245714
-0.00242275,1.9780308944110423,4.2831066393202164
-0.0024225000000000002,1.9730763832112295,4.2831066393202164
-0.0024222499999999999,1.968782473504725,4.2827759153223939
-0.0024220000000000001,1.9651491652915287,4.2824451913245714
-0.0024217499999999999,1.9618461578249868,4.2831066393202164
-0.0024215,1.9592037518517533,4.2824451913245714
-0.0024212499999999998,1.9578825488651366,4.2824451913245714
-0.002421,1.956891646625174,4.2824451913245714
-0.0024207500000000002,1.9565613458785198,4.2824451913245714
-0.0024204999999999999,1.9565613458785198,4.2827759153223939
-0.0024202500000000001,1.956891646625174,4.2824451913245714
-0.0024199999999999998,1.9578825488651366,4.2821144673267479
-0.00241975,1.9588734511050991,4.2821144673267479
-0.0024195000000000002,1.9615158570783326,4.2827759153223939
-0.00241925,1.9648188645448745,4.2821144673267479
-0.0024190000000000001,1.968782473504725,4.2824451913245714
-0.0024187499999999999,1.9737369847045378,4.2827759153223939
-0.0024185000000000001,1.9780308944110423,4.2831066393202164
-0.0024182499999999998,1.9843066085974721,4.2831066393202164
-0.002418,1.9902520220372475,4.2821144673267479
-0.0024177500000000002,1.9968580369703313,4.2827759153223939
-0.0024174999999999999,2.0047852548900318,4.2827759153223939
-0.0024172500000000001,2.0123821720630781,4.2824451913245714
-0.0024169999999999999,2.0199790892361249,4.2831066393202164
-0.0024167500000000001,2.0292275101424422,4.2827759153223939
-0.0024164999999999998,2.0384759310487595,4.2831066393202164
-0.00241625,2.0480546527017309,4.2827759153223939
