MatLab/36_raw_HP.csv

#Digilent WaveForms Oscilloscope Acquisition
#Device Name: Discovery2
#Serial Number: SN:210321A68916
#Date Time: 2018-04-29 13:33:13.594
#Sample rate: 4e+06Hz
#Samples: 20000
#Trigger: Source: Channel 1 Type: Edge Condition: Rising Level: 0 V Hyst.: Auto HoldOff: 0 s
#Channel 1: Range: 2 mV/div Offset: -2.11 V
#Channel 2: Range: 500 mV/div Offset: -2 V

Time (s),Channel 1 (V),Channel 2 (V)
-0.0025000000000000001,2.1256753281654661,2.1289466454314483
-0.0024997499999999998,2.1253450274188119,2.1292773694292713
-0.0024995,2.1256753281654661,2.1296080934270942
-0.0024992500000000002,2.1256753281654661,2.1292773694292713
-0.0024989999999999999,2.1253450274188119,2.1286159214336253
-0.0024987500000000001,2.1256753281654661,2.1292773694292713
-0.0024984999999999999,2.1256753281654661,2.1289466454314483
-0.00249825,2.1256753281654661,2.1289466454314483
-0.0024979999999999998,2.1256753281654661,2.1292773694292713
-0.00249775,2.1246844259255036,2.1282851974358019
-0.0024975000000000002,2.1256753281654661,2.1292773694292713
-0.0024972499999999999,2.1250147266721577,2.1286159214336253
-0.0024970000000000001,2.1250147266721577,2.1286159214336253
-0.0024967499999999998,2.1256753281654661,2.1289466454314483
-0.0024965,2.1256753281654661,2.1282851974358019
-0.0024962500000000002,2.1253450274188119,2.1282851974358019
-0.002496,2.1256753281654661,2.1279544734379789
-0.0024957500000000001,2.1256753281654661,2.127293025442333
-0.0024954999999999999,2.1256753281654661,2.1269623014445096
-0.0024952500000000001,2.1250147266721577,2.1266315774466866
-0.0024949999999999998,2.1250147266721577,2.1269623014445096
-0.00249475,2.1250147266721577,2.1266315774466866
-0.0024945000000000002,2.1246844259255036,2.1259701294510407
-0.0024942499999999999,2.1246844259255036,2.1253086814553943
-0.0024940000000000001,2.1243541251788494,2.1253086814553943
-0.0024937499999999999,2.1243541251788494,2.1256394054532177
-0.0024935000000000001,2.1240238244321952,2.1249779574575713
-0.0024932499999999998,2.1243541251788494,2.1249779574575713
-0.002493,2.1240238244321952,2.1253086814553943
-0.0024927500000000002,2.1240238244321952,2.1249779574575713
-0.0024924999999999999,2.1243541251788494,2.1249779574575713
-0.0024922500000000001,2.1243541251788494,2.1246472334597484
-0.0024919999999999999,2.1246844259255036,2.1243165094619254
-0.00249175,2.1240238244321952,2.1243165094619254
-0.0024914999999999998,2.1240238244321952,2.1243165094619254
-0.00249125,2.1240238244321952,2.1243165094619254
-0.0024910000000000002,2.123693523685541,2.1239857854641024
-0.0024907499999999999,2.1243541251788494,2.1243165094619254
-0.0024905000000000001,2.1246844259255036,2.1243165094619254
-0.0024902499999999998,2.1250147266721577,2.1243165094619254
-0.00249,2.1253450274188119,2.1249779574575713
-0.0024897500000000002,2.1253450274188119,2.1249779574575713
-0.0024895,2.1250147266721577,2.1243165094619254
-0.0024892500000000001,2.1250147266721577,2.1249779574575713
-0.0024889999999999999,2.1253450274188119,2.1249779574575713
-0.0024887500000000001,2.1253450274188119,2.1253086814553943
-0.0024884999999999998,2.1260056289121203,2.1253086814553943
-0.00248825,2.1263359296587745,2.1266315774466866
-0.0024880000000000002,2.1256753281654661,2.1259701294510407
-0.0024877499999999999,2.1260056289121203,2.1259701294510407
-0.0024875000000000001,2.1256753281654661,2.1266315774466866
-0.0024872499999999999,2.1263359296587745,2.127293025442333
-0.0024870000000000001,2.1256753281654661,2.1266315774466866
-0.0024867499999999998,2.1256753281654661,2.1266315774466866
-0.0024865,2.1260056289121203,2.1269623014445096
-0.0024862500000000002,2.1260056289121203,2.1269623014445096
-0.0024859999999999999,2.1263359296587745,2.1266315774466866
-0.0024857500000000001,2.1263359296587745,2.1266315774466866
-0.0024854999999999999,2.1273268318987371,2.127293025442333
-0.00248525,2.1273268318987371,2.127293025442333
-0.0024849999999999998,2.1269965311520829,2.127293025442333
-0.00248475,2.1269965311520829,2.1266315774466866
-0.0024845000000000002,2.1273268318987371,2.1269623014445096
-0.0024842499999999999,2.1269965311520829,2.1266315774466866
-0.0024840000000000001,2.1269965311520829,2.1263008534488637
-0.0024837499999999998,2.1269965311520829,2.1259701294510407
-0.0024835,2.1266662304054287,2.1263008534488637
-0.0024832500000000002,2.1260056289121203,2.1256394054532177
-0.002483,2.1260056289121203,2.1256394054532177
-0.0024827500000000001,2.1266662304054287,2.1259701294510407
-0.0024824999999999999,2.1263359296587745,2.1253086814553943
-0.0024822500000000001,2.1263359296587745,2.1246472334597484
-0.0024819999999999998,2.1266662304054287,2.1243165094619254
-0.00248175,2.1269965311520829,2.1246472334597484
-0.0024815000000000002,2.1269965311520829,2.1239857854641024
-0.0024812499999999999,2.1266662304054287,2.123655061466279
-0.0024810000000000001,2.1263359296587745,2.1229936134706331
-0.0024807499999999999,2.1266662304054287,2.1233243374684561
-0.0024805000000000001,2.1256753281654661,2.1226628894728101
-0.0024802499999999998,2.1260056289121203,2.1226628894728101
-0.00248,2.1253450274188119,2.1229936134706331
-0.0024797500000000002,2.1253450274188119,2.1229936134706331
-0.0024794999999999999,2.1250147266721577,2.1229936134706331
-0.0024792500000000001,2.1253450274188119,2.1226628894728101
-0.0024789999999999999,2.1253450274188119,2.1233243374684561
-0.0024787500000000001,2.1256753281654661,2.1223321654749867
-0.0024784999999999998,2.1256753281654661,2.1226628894728101
-0.00247825,2.1256753281654661,2.1239857854641024
-0.0024780000000000002,2.1243541251788494,2.1229936134706331
-0.0024777499999999999,2.1243541251788494,2.1233243374684561
-0.0024775000000000001,2.1243541251788494,2.1239857854641024
-0.0024772499999999999,2.1240238244321952,2.1233243374684561
-0.002477,2.1240238244321952,2.123655061466279
-0.0024767499999999998,2.1240238244321952,2.123655061466279
-0.0024765,2.1243541251788494,2.1243165094619254
-0.0024762500000000002,2.1250147266721577,2.1239857854641024
-0.0024759999999999999,2.1243541251788494,2.1239857854641024
-0.0024757500000000001,2.1246844259255036,2.1243165094619254
-0.0024754999999999998,2.1243541251788494,2.1249779574575713
-0.00247525,2.1250147266721577,2.1249779574575713
-0.0024750000000000002,2.1243541251788494,2.1253086814553943
-0.00247475,2.1246844259255036,2.1259701294510407
-0.0024745000000000001,2.1250147266721577,2.1266315774466866
-0.0024742499999999999,2.1243541251788494,2.1269623014445096
-0.0024740000000000001,2.1250147266721577,2.127293025442333
-0.0024737499999999998,2.1250147266721577,2.1279544734379789
-0.0024735,2.1250147266721577,2.1279544734379789
-0.0024732500000000002,2.1253450274188119,2.1286159214336253
-0.0024729999999999999,2.1250147266721577,2.1289466454314483
-0.0024727500000000001,2.1246844259255036,2.1292773694292713
-0.0024724999999999999,2.1250147266721577,2.1292773694292713
-0.0024722500000000001,2.1250147266721577,2.1296080934270942
-0.0024719999999999998,2.1250147266721577,2.1296080934270942
-0.00247175,2.1246844259255036,2.1299388174249172
-0.0024715000000000002,2.1250147266721577,2.1299388174249172
-0.0024712499999999999,2.1250147266721577,2.1296080934270942
-0.0024710000000000001,2.1250147266721577,2.1292773694292713
-0.0024707499999999999,2.1250147266721577,2.1296080934270942
-0.0024705,2.1253450274188119,2.1302695414227406
-0.0024702499999999998,2.1250147266721577,2.1292773694292713
-0.00247,2.1256753281654661,2.1296080934270942
-0.0024697500000000002,2.1253450274188119,2.1299388174249172
-0.0024694999999999999,2.1253450274188119,2.1292773694292713
-0.0024692500000000001,2.1253450274188119,2.1292773694292713
-0.0024689999999999998,2.1246844259255036,2.1282851974358019
-0.00246875,2.1246844259255036,2.1279544734379789
-0.0024685000000000002,2.1260056289121203,2.1286159214336253
-0.00246825,2.1246844259255036,2.1269623014445096
-0.0024680000000000001,2.1253450274188119,2.127623749440156
-0.0024677499999999999,2.1246844259255036,2.1266315774466866
-0.0024675000000000001,2.1250147266721577,2.1266315774466866
-0.0024672499999999998,2.1243541251788494,2.1266315774466866
-0.002467,2.1246844259255036,2.1263008534488637
-0.0024667500000000002,2.1250147266721577,2.1263008534488637
-0.0024664999999999999,2.1243541251788494,2.1256394054532177
-0.0024662500000000001,2.1246844259255036,2.1259701294510407
-0.0024659999999999999,2.1246844259255036,2.1259701294510407
-0.0024657500000000001,2.1243541251788494,2.1256394054532177
-0.0024654999999999998,2.1240238244321952,2.1246472334597484
-0.00246525,2.1243541251788494,2.1246472334597484
-0.0024650000000000002,2.1246844259255036,2.1246472334597484
-0.0024647499999999999,2.123693523685541,2.1243165094619254
-0.0024645000000000001,2.1240238244321952,2.1239857854641024
-0.0024642499999999999,2.1250147266721577,2.1243165094619254
-0.002464,2.1246844259255036,2.1243165094619254
-0.0024637499999999998,2.1243541251788494,2.1243165094619254
-0.0024635,2.1240238244321952,2.1243165094619254
-0.0024632500000000002,2.1243541251788494,2.1249779574575713
-0.0024629999999999999,2.1240238244321952,2.1243165094619254
-0.0024627500000000001,2.123693523685541,2.1239857854641024
-0.0024624999999999998,2.1240238244321952,2.1239857854641024
-0.00246225,2.1240238244321952,2.1239857854641024
-0.0024620000000000002,2.1240238244321952,2.1239857854641024
-0.00246175,2.1243541251788494,2.1243165094619254
-0.0024615000000000001,2.1246844259255036,2.1243165094619254
-0.0024612499999999999,2.1250147266721577,2.1246472334597484
-0.0024610000000000001,2.1250147266721577,2.1246472334597484
-0.0024607499999999998,2.1250147266721577,2.1246472334597484
-0.0024605,2.1256753281654661,2.1249779574575713
-0.0024602500000000002,2.1253450274188119,2.1253086814553943
-0.0024599999999999999,2.1253450274188119,2.1253086814553943
-0.0024597500000000001,2.1260056289121203,2.1259701294510407
-0.0024594999999999999,2.1263359296587745,2.1259701294510407
-0.0024592500000000001,2.1266662304054287,2.1263008534488637
-0.0024589999999999998,2.1266662304054287,2.1259701294510407
-0.00245875,2.1273268318987371,2.127623749440156
-0.0024585000000000002,2.1269965311520829,2.127293025442333
-0.0024582499999999999,2.1263359296587745,2.1269623014445096
-0.0024580000000000001,2.1263359296587745,2.1269623014445096
-0.0024577499999999999,2.1269965311520829,2.1269623014445096
-0.0024575,2.1266662304054287,2.1269623014445096
-0.0024572499999999998,2.1269965311520829,2.1266315774466866
-0.002457,2.1269965311520829,2.1266315774466866
-0.0024567500000000002,2.1269965311520829,2.1266315774466866
-0.0024564999999999999,2.1273268318987371,2.1263008534488637
-0.0024562500000000001,2.1266662304054287,2.1259701294510407
-0.0024559999999999998,2.1269965311520829,2.1259701294510407
-0.00245575,2.1266662304054287,2.1259701294510407
-0.0024554999999999998,2.1269965311520829,2.1253086814553943
-0.00245525,2.1266662304054287,2.1253086814553943
-0.0024550000000000002,2.1269965311520829,2.1249779574575713
-0.0024547499999999999,2.1269965311520829,2.1246472334597484
-0.0024545000000000001,2.1263359296587745,2.1246472334597484
-0.0024542499999999998,2.1266662304054287,2.1243165094619254
-0.002454,2.1266662304054287,2.1243165094619254
-0.0024537500000000002,2.1266662304054287,2.1243165094619254
-0.0024535,2.1266662304054287,2.1239857854641024
-0.0024532500000000001,2.1269965311520829,2.1239857854641024
-0.0024529999999999999,2.1266662304054287,2.1239857854641024
-0.0024527500000000001,2.1269965311520829,2.1233243374684561
-0.0024524999999999998,2.1263359296587745,2.123655061466279
-0.00245225,2.1263359296587745,2.123655061466279
-0.0024520000000000002,2.1260056289121203,2.1233243374684561
-0.0024517499999999999,2.1256753281654661,2.1233243374684561
-0.0024515000000000001,2.1250147266721577,2.1233243374684561
-0.0024512499999999999,2.1253450274188119,2.123655061466279
-0.0024510000000000001,2.1253450274188119,2.1233243374684561
-0.0024507499999999998,2.1246844259255036,2.1229936134706331
-0.0024505,2.1246844259255036,2.1233243374684561
-0.0024502500000000002,2.1250147266721577,2.1229936134706331
-0.0024499999999999999,2.1246844259255036,2.1233243374684561
-0.0024497500000000001,2.1240238244321952,2.1223321654749867
-0.0024494999999999999,2.1246844259255036,2.123655061466279
-0.00244925,2.1253450274188119,2.1233243374684561
-0.0024489999999999998,2.1250147266721577,2.123655061466279
-0.00244875,2.1250147266721577,2.123655061466279
-0.0024485000000000002,2.1253450274188119,2.1233243374684561
-0.0024482499999999999,2.1246844259255036,2.1239857854641024
-0.0024480000000000001,2.1246844259255036,2.1239857854641024
-0.0024477499999999998,2.1243541251788494,2.1246472334597484
-0.0024475,2.1246844259255036,2.1246472334597484
-0.0024472500000000002,2.1246844259255036,2.1249779574575713
-0.002447,2.1240238244321952,2.1253086814553943
-0.0024467500000000001,2.1246844259255036,2.1259701294510407
-0.0024464999999999999,2.1246844259255036,2.1263008534488637
-0.0024462500000000001,2.1243541251788494,2.1266315774466866
-0.0024459999999999998,2.1240238244321952,2.1269623014445096
-0.00244575,2.1243541251788494,2.127293025442333
-0.0024455000000000002,2.1243541251788494,2.127623749440156
-0.0024452499999999999,2.1243541251788494,2.127293025442333
-0.0024450000000000001,2.1246844259255036,2.127293025442333
-0.0024447499999999999,2.1250147266721577,2.1286159214336253
-0.0024445000000000001,2.1246844259255036,2.1286159214336253
-0.0024442499999999998,2.1250147266721577,2.1289466454314483
-0.002444,2.1250147266721577,2.1292773694292713
-0.0024437500000000002,2.1253450274188119,2.1296080934270942
-0.0024434999999999999,2.1246844259255036,2.1299388174249172
-0.0024432500000000001,2.1250147266721577,2.1296080934270942
-0.0024429999999999999,2.1256753281654661,2.1296080934270942
-0.00244275,2.1253450274188119,2.1296080934270942
-0.0024424999999999998,2.1250147266721577,2.1296080934270942
-0.00244225,2.1256753281654661,2.1299388174249172
-0.0024420000000000002,2.1256753281654661,2.1296080934270942
-0.0024417499999999999,2.1253450274188119,2.1296080934270942
-0.0024415000000000001,2.1253450274188119,2.1296080934270942
-0.0024412499999999998,2.1256753281654661,2.1292773694292713
-0.002441,2.1253450274188119,2.1296080934270942
-0.0024407500000000002,2.1253450274188119,2.1289466454314483
-0.0024405,2.1250147266721577,2.1279544734379789
-0.0024402500000000001,2.1250147266721577,2.127623749440156
-0.0024399999999999999,2.1253450274188119,2.1279544734379789
-0.0024397500000000001,2.1246844259255036,2.127623749440156
-0.0024394999999999998,2.1250147266721577,2.127293025442333
-0.00243925,2.1253450274188119,2.127293025442333
-0.0024390000000000002,2.1250147266721577,2.1269623014445096
-0.0024387499999999999,2.1250147266721577,2.1269623014445096
-0.0024385000000000001,2.1246844259255036,2.1266315774466866
-0.0024382499999999999,2.1250147266721577,2.1263008534488637
-0.0024380000000000001,2.1250147266721577,2.1263008534488637
-0.0024377499999999998,2.1246844259255036,2.1253086814553943
-0.0024375,2.1250147266721577,2.1259701294510407
-0.0024372500000000002,2.1250147266721577,2.1256394054532177
-0.0024369999999999999,2.1246844259255036,2.1253086814553943
-0.0024367500000000001,2.1250147266721577,2.1253086814553943
-0.0024364999999999999,2.1243541251788494,2.1246472334597484
-0.00243625,2.1246844259255036,2.1246472334597484
-0.0024359999999999998,2.1243541251788494,2.1246472334597484
-0.00243575,2.1240238244321952,2.1243165094619254
-0.0024355000000000002,2.1240238244321952,2.1246472334597484
-0.0024352499999999999,2.1246844259255036,2.1246472334597484
-0.0024350000000000001,2.1240238244321952,2.1243165094619254
-0.0024347499999999998,2.123693523685541,2.1243165094619254
-0.0024345,2.1240238244321952,2.1243165094619254
-0.0024342500000000002,2.1243541251788494,2.1239857854641024
-0.002434,2.123693523685541,2.1239857854641024
-0.0024337500000000001,2.1240238244321952,2.1246472334597484
-0.0024334999999999999,2.1243541251788494,2.1246472334597484
-0.0024332500000000001,2.1246844259255036,2.1243165094619254
-0.0024329999999999998,2.1246844259255036,2.1246472334597484
-0.00243275,2.1250147266721577,2.1249779574575713
-0.0024325000000000002,2.1256753281654661,2.1249779574575713
-0.00243225,2.1253450274188119,2.1249779574575713
-0.0024320000000000001,2.1253450274188119,2.1253086814553943
-0.0024317499999999999,2.1256753281654661,2.1253086814553943
-0.0024315000000000001,2.1253450274188119,2.1253086814553943
-0.0024312499999999998,2.1253450274188119,2.1249779574575713
-0.002431,2.1269965311520829,2.1263008534488637
-0.0024307500000000002,2.1263359296587745,2.1253086814553943
-0.0024304999999999999,2.1266662304054287,2.1263008534488637
-0.0024302500000000001,2.1263359296587745,2.1259701294510407
-0.0024299999999999999,2.1266662304054287,2.1269623014445096
-0.0024297500000000001,2.1269965311520829,2.1269623014445096
-0.0024294999999999998,2.1260056289121203,2.1266315774466866
-0.00242925,2.1260056289121203,2.1266315774466866
-0.0024290000000000002,2.1269965311520829,2.1269623014445096
-0.0024287499999999999,2.1269965311520829,2.1263008534488637
-0.0024285000000000001,2.1266662304054287,2.1263008534488637
-0.0024282499999999999,2.1273268318987371,2.1263008534488637
-0.002428,2.1273268318987371,2.1266315774466866
-0.0024277499999999998,2.1269965311520829,2.1259701294510407
-0.0024275,2.1266662304054287,2.1256394054532177
-0.0024272500000000002,2.1273268318987371,2.1256394054532177
-0.0024269999999999999,2.1269965311520829,2.1256394054532177
-0.0024267500000000001,2.1269965311520829,2.1249779574575713
-0.0024264999999999998,2.1263359296587745,2.1246472334597484
-0.00242625,2.1269965311520829,2.1246472334597484
-0.0024260000000000002,2.1266662304054287,2.1243165094619254
-0.00242575,2.1263359296587745,2.1239857854641024
-0.0024255000000000001,2.1269965311520829,2.1243165094619254
-0.0024252499999999999,2.1269965311520829,2.123655061466279
-0.0024250000000000001,2.1266662304054287,2.1233243374684561
-0.0024247499999999998,2.1266662304054287,2.1233243374684561
-0.0024245,2.1269965311520829,2.1229936134706331
-0.0024242500000000002,2.1263359296587745,2.1229936134706331
-0.0024239999999999999,2.1263359296587745,2.1233243374684561
-0.0024237500000000001,2.1260056289121203,2.1233243374684561
-0.0024234999999999999,2.1256753281654661,2.1229936134706331
-0.0024232500000000001,2.1256753281654661,2.1229936134706331
-0.0024229999999999998,2.1253450274188119,2.1229936134706331
-0.00242275,2.1253450274188119,2.1233243374684561
-0.0024225000000000002,2.1256753281654661,2.1229936134706331
-0.0024222499999999999,2.1246844259255036,2.1229936134706331
-0.0024220000000000001,2.1246844259255036,2.1223321654749867
-0.0024217499999999999,2.1246844259255036,2.1226628894728101
-0.0024215,2.1246844259255036,2.1223321654749867
-0.0024212499999999998,2.1253450274188119,2.1233243374684561
-0.002421,2.1250147266721577,2.123655061466279
-0.0024207500000000002,2.1250147266721577,2.1239857854641024
-0.0024204999999999999,2.1243541251788494,2.123655061466279
-0.0024202500000000001,2.1240238244321952,2.1239857854641024
-0.0024199999999999998,2.1243541251788494,2.1243165094619254
-0.00241975,2.1243541251788494,2.1243165094619254
-0.0024195000000000002,2.1243541251788494,2.1249779574575713
-0.00241925,2.1243541251788494,2.1243165094619254
-0.0024190000000000001,2.1246844259255036,2.1249779574575713
-0.0024187499999999999,2.1240238244321952,2.1256394054532177
-0.0024185000000000001,2.1240238244321952,2.1259701294510407
-0.0024182499999999998,2.1240238244321952,2.1263008534488637
-0.002418,2.1243541251788494,2.1266315774466866
-0.0024177500000000002,2.1243541251788494,2.1269623014445096
-0.0024174999999999999,2.1246844259255036,2.1269623014445096
-0.0024172500000000001,2.1243541251788494,2.127623749440156
-0.0024169999999999999,2.1246844259255036,2.1279544734379789
-0.0024167500000000001,2.1246844259255036,2.1289466454314483
-0.0024164999999999998,2.1246844259255036,2.1282851974358019
-0.00241625,2.1250147266721577,2.1289466454314483
-0.0024160000000000002,2.1250147266721577,2.1296080934270942
